{"current_page":1,"data":[{"id":71,"name":"11212","category_id":1,"shop_img":"http:\/\/47.105.112.77:6001\/storage\/uploads\/48c2b7a28a138e810001a27a3ad3c3d0.jpg","sort_a":null,"sort_b":null,"intro":"20","sales_type":"2","browsing_num":20,"shop_id":652561,"son_category_id":11},{"id":67,"name":"111","category_id":1,"shop_img":"http:\/\/47.105.112.77:6001\/storage\/uploads\/a29411f7dbc71405eb9b0690217f16be.jpg","sort_a":1,"sort_b":null,"intro":"","sales_type":"1","browsing_num":10,"shop_id":591238,"son_category_id":5},{"id":68,"name":"\u742a\u742a\u7684\u5e97\u94fa","category_id":4,"shop_img":"http:\/\/47.105.112.77:6001\/storage\/uploads\/3a878fa99669ae04b42f044fb31e0c65.jpg","sort_a":1,"sort_b":null,"intro":"50","sales_type":"2","browsing_num":0,"shop_id":110439,"son_category_id":5},{"id":69,"name":"\u4e8c\u7ea7\u5206\u7c7b","category_id":6,"shop_img":"http:\/\/47.105.112.77:6001\/storage\/uploads\/62fbfe3e032f226a0eb6afa02a3359b0.png","sort_a":4,"sort_b":null,"intro":"","sales_type":"2","browsing_num":0,"shop_id":603949,"son_category_id":11},{"id":70,"name":"admin","category_id":1,"shop_img":"http:\/\/47.105.112.77:6001\/storage\/uploads\/5c0bbca200ba2a79364dc49f9a6ad8ce.jpg","sort_a":null,"sort_b":null,"intro":"10","sales_type":"1","browsing_num":0,"shop_id":217284,"son_category_id":11},{"id":72,"name":"\u6492\u65e6\u6cd5","category_id":7,"shop_img":"http:\/\/47.105.112.77:6001\/storage\/uploads\/b4f5f89b019580a85a1c7baf378a9d34.jpg","sort_a":null,"sort_b":2,"intro":"","sales_type":"1","browsing_num":0,"shop_id":891145,"son_category_id":11}],"first_page_url":"http:\/\/www.bazhong.com\/api\/business\/index?page=1","from":1,"last_page":2,"last_page_url":"http:\/\/www.bazhong.com\/api\/business\/index?page=2","next_page_url":"http:\/\/www.bazhong.com\/api\/business\/index?page=2","path":"http:\/\/www.bazhong.com\/api\/business\/index","per_page":6,"prev_page_url":null,"to":6,"total":7}